---
http_interactions:
- request:
    method: get
    uri: https://api.smc-connect.org/search?keyword=Work&kind=Human%20Services&location=94103&page=1&per_page=5
    body:
      encoding: US-ASCII
      string: ''
    headers:
      Accept:
      - application/vnd.ohanapi-v1+json
      User-Agent:
      - Ohanakapa Ruby Gem 1.1.3
      Accept-Encoding:
      - gzip;q=1.0,deflate;q=0.6,identity;q=0.3
  response:
    status:
      code: 200
      message: OK
    headers:
      Server:
      - Cowboy
      Connection:
      - keep-alive
      X-Frame-Options:
      - SAMEORIGIN
      X-Xss-Protection:
      - 1; mode=block
      X-Content-Type-Options:
      - nosniff
      Etag:
      - W/"a39a6f64b77f377feef27987e06c3d21"
      Link:
      - <https://api.smc-connect.org/search?keyword=Work&page=5&per_page=5>; rel="last",
        <https://api.smc-connect.org/search?keyword=Work&page=2&per_page=5>; rel="next"
      X-Total-Count:
      - '21'
      Content-Type:
      - application/json; charset=utf-8
      Date:
      - Sun, 01 Jul 2018 01:50:58 GMT
      Cache-Control:
      - max-age=300, public
      Vary:
      - Origin
      X-Request-Id:
      - 44759c74-6088-4743-8941-491c6ecab525
      X-Runtime:
      - '0.087969'
      Strict-Transport-Security:
      - max-age=15552000; includeSubDomains
      Transfer-Encoding:
      - chunked
      Via:
      - 1.1 vegur
    body:
      encoding: UTF-8
      string: '[{"id":321,"active":true,"admin_emails":null,"alternate_name":"","coordinates":[-122.4079095,37.7928288],"description":"Provides
        vocational training services for low-income, limited English-speaking adults,
        primarily ethnic Chinese. The six-month program includes classroom study and
        on-the-job training (OJT) to earn a certificate in custodial maintenance.
        Program requires tuition of $1,475 in total. Student OJT work is paid at San
        Francisco minimum wage. Concludes with job placement assistance. Continuing
        support for alumni.","kind":"Human Services","latitude":37.7928288,"longitude":-122.4079095,"name":"Maintenance
        Training Corporation (MAINTRAIN)","short_desc":"On-the-job training program
        in custodial services for low-income, primarily Asian adults.","slug":"maintenance-training-corporation-maintrain","updated_at":"2016-03-07T15:30:51.607-08:00","website":"http://www.maintrain.org/program.html","url":"https://api.smc-connect.org/locations/maintenance-training-corporation-maintrain","address":{"id":270,"address_1":"777
        Stockton Street, Suite 202","address_2":null,"city":"San Francisco","state_province":"CA","postal_code":"94108"},"organization":{"id":321,"accreditations":[],"alternate_name":null,"date_incorporated":null,"description":null,"email":null,"funding_sources":[],"licenses":[],"name":"Maintenance
        Training Corporation (MAINTRAIN)","website":null,"slug":"maintenance-training-corporation-maintrain","url":"https://api.smc-connect.org/organizations/maintenance-training-corporation-maintrain","locations_url":"https://api.smc-connect.org/organizations/maintenance-training-corporation-maintrain/locations"},"phones":[{"id":426,"department":null,"extension":null,"number":"415
        398-3353","number_type":"voice","vanity_number":null},{"id":2692,"department":null,"extension":null,"number":"415
        398-3357","number_type":"fax","vanity_number":null}]},{"id":1199,"active":true,"admin_emails":null,"alternate_name":null,"coordinates":[-122.4052981,37.78597],"description":"Assists
        people affected by, or at risk for, HIV/AIDS through culturally appropriate
        counseling, education and advocacy to make informed choices which maximize
        available benefits and employment opportunities. The Employment Services Program
        includes job search skills workshops, computer training, resume assistance,
        career counseling/vocational testing and Working While Disabled workshops.
        The Benefits Counseling Program for San Francisco residents provides individualized
        benefits counseling and advocacy.","kind":"Human Services","latitude":37.78597,"longitude":-122.4052981,"name":"Taft
        School Health Services","short_desc":"An employment service for persons with
        AIDS/HIV.","slug":"taft-school-health-services","updated_at":"2014-11-25T17:22:13.037-08:00","website":"http://www.positiveresource.org","url":"https://api.smc-connect.org/locations/taft-school-health-services","address":{"id":957,"address_1":"785
        Market Street, 10th Floor","address_2":null,"city":"San Francisco","state_province":"CA","postal_code":"94103"},"organization":{"id":1199,"accreditations":[],"alternate_name":null,"date_incorporated":null,"description":null,"email":null,"funding_sources":[],"licenses":[],"name":"Positive
        Resource Center","website":null,"slug":"positive-resource-center","url":"https://api.smc-connect.org/organizations/positive-resource-center","locations_url":"https://api.smc-connect.org/organizations/positive-resource-center/locations"},"phones":[{"id":1572,"department":null,"extension":null,"number":"415
        777-0333","number_type":"voice","vanity_number":null},{"id":3239,"department":null,"extension":null,"number":"415
        777-1770","number_type":"fax","vanity_number":null}]},{"id":1161,"active":true,"admin_emails":null,"alternate_name":null,"coordinates":[-122.4020736,37.7907516],"description":"Provides
        information, advocacy, counseling and legal services on employment-related
        issues to low-income individuals. Access to services is provided through Workers''
        Rights Clinics which address the full range of employment issues including
        unpaid wages, workplace discrimination, harassment, wrongful termination,
        disability rights in the workplace, workplace injuries, unemployment compensation,
        and family/medical leave. Clinics are located in San Francisco, Berkeley,
        East San Jose, Fresno, and Orange County.","kind":"Human Services","latitude":37.7907516,"longitude":-122.4020736,"name":"Employment
        Law Center","short_desc":"Legal representation for low-income persons with
        employment problems.","slug":"employment-law-center","updated_at":"2014-12-04T11:17:20.943-08:00","website":"http://www.las-elc.org","url":"https://api.smc-connect.org/locations/employment-law-center","address":{"id":927,"address_1":"180
        Montgomery Street","address_2":null,"city":"San Francisco","state_province":"CA","postal_code":"94104"},"organization":{"id":1161,"accreditations":[],"alternate_name":null,"date_incorporated":null,"description":null,"email":null,"funding_sources":[],"licenses":[],"name":"Legal
        Aid Society of San Francisco","website":null,"slug":"legal-aid-society-of-san-francisco","url":"https://api.smc-connect.org/organizations/legal-aid-society-of-san-francisco","locations_url":"https://api.smc-connect.org/organizations/legal-aid-society-of-san-francisco/locations"},"phones":[{"id":1521,"department":null,"extension":null,"number":"415
        864-8848","number_type":"voice","vanity_number":null},{"id":1522,"department":null,"extension":null,"number":"415
        864-8208","number_type":"voice","vanity_number":null},{"id":3217,"department":null,"extension":null,"number":"415
        864-8199","number_type":"fax","vanity_number":null}]},{"id":1151,"active":true,"admin_emails":null,"alternate_name":null,"coordinates":[-122.430927,37.78667],"description":"Provides
        bilingual social services primarily for Japanese persons, including translation
        and interpretation. Drop-in center provides employment, housing and immigration
        information, cultural, educational and recreational activities, and information
        and referral. Offers a small library of Japanese books. A community board
        lists job openings, housing information and educational opportunities in Japanese.
        Publishes a bimonthly newsletter. A women''s project offers peer counseling
        and group support.","kind":"Human Services","latitude":37.78667,"longitude":-122.430927,"name":"Nobiru
        Kai Inc.","short_desc":"Bilingual social services for Japanese, including
        translation and interpretation, a drop-in center, library, educational and
        recreational activities.","slug":"nobiru-kai-inc","updated_at":"2014-12-04T11:08:56.272-08:00","website":"http://www.nobiru-kai.org","url":"https://api.smc-connect.org/locations/nobiru-kai-inc","address":{"id":917,"address_1":"1840
        Sutter Street, Suite 207","address_2":null,"city":"San Francisco","state_province":"CA","postal_code":"94115"},"organization":{"id":1151,"accreditations":[],"alternate_name":null,"date_incorporated":null,"description":null,"email":null,"funding_sources":[],"licenses":[],"name":"Japanese
        Newcomers Services","website":null,"slug":"japanese-newcomers-services","url":"https://api.smc-connect.org/organizations/japanese-newcomers-services","locations_url":"https://api.smc-connect.org/organizations/japanese-newcomers-services/locations"},"phones":[{"id":1508,"department":null,"extension":null,"number":"415
        922-2033","number_type":"voice","vanity_number":null},{"id":3208,"department":null,"extension":null,"number":"415
        922-0410","number_type":"fax","vanity_number":null}]},{"id":311,"active":true,"admin_emails":null,"alternate_name":null,"coordinates":[-122.3935533,37.7938256],"description":"Provides
        interest-free loans to Jewish residents of northern California facing financial
        distress or needing help to achieve an important goal. Loans are available
        for emergencies, education, adoption, medical expenses, business start-ups,
        and many other needs.","kind":"Human Services","latitude":37.7938256,"longitude":-122.3935533,"name":"Hebrew
        Free Loan Association of San Francisco","short_desc":"Provides interest-free
        loans to qualifying Jewish persons.","slug":"hebrew-free-loan-association-of-san-francisco","updated_at":"2014-11-25T17:21:59.856-08:00","website":"http://hflasf.org","url":"https://api.smc-connect.org/locations/hebrew-free-loan-association-of-san-francisco","address":{"id":261,"address_1":"131
        Steuart Street, Suite 425","address_2":null,"city":"San Francisco","state_province":"CA","postal_code":"94105"},"organization":{"id":311,"accreditations":[],"alternate_name":null,"date_incorporated":null,"description":null,"email":null,"funding_sources":[],"licenses":[],"name":"Hebrew
        Free Loan Association of San Francisco","website":null,"slug":"hebrew-free-loan-association-of-san-francisco","url":"https://api.smc-connect.org/organizations/hebrew-free-loan-association-of-san-francisco","locations_url":"https://api.smc-connect.org/organizations/hebrew-free-loan-association-of-san-francisco/locations"},"phones":[{"id":414,"department":null,"extension":null,"number":"415
        546-9902","number_type":"voice","vanity_number":null},{"id":2683,"department":null,"extension":null,"number":"415
        546-7479","number_type":"fax","vanity_number":null}]}]'
    http_version: 
  recorded_at: Sun, 01 Jul 2018 01:50:58 GMT
- request:
    method: get
    uri: https://api.smc-connect.org/search?keyword=Work&kind=Human%20Services&location=94103&page=1&per_page=5
    body:
      encoding: US-ASCII
      string: ''
    headers:
      Accept:
      - application/vnd.ohanapi-v1+json
      User-Agent:
      - Ohanakapa Ruby Gem 1.1.3
      Accept-Encoding:
      - gzip;q=1.0,deflate;q=0.6,identity;q=0.3
  response:
    status:
      code: 200
      message: OK
    headers:
      Server:
      - Cowboy
      Connection:
      - keep-alive
      X-Frame-Options:
      - SAMEORIGIN
      X-Xss-Protection:
      - 1; mode=block
      X-Content-Type-Options:
      - nosniff
      Etag:
      - W/"a39a6f64b77f377feef27987e06c3d21"
      Link:
      - <https://api.smc-connect.org/search?keyword=Work&page=5&per_page=5>; rel="last",
        <https://api.smc-connect.org/search?keyword=Work&page=2&per_page=5>; rel="next"
      X-Total-Count:
      - '21'
      Content-Type:
      - application/json; charset=utf-8
      Date:
      - Sun, 01 Jul 2018 01:50:58 GMT
      Cache-Control:
      - max-age=300, public
      Vary:
      - Origin
      X-Request-Id:
      - 1e7bfa3c-87b6-427d-85c5-ecd1b89e44fb
      X-Runtime:
      - '0.055708'
      Strict-Transport-Security:
      - max-age=15552000; includeSubDomains
      Transfer-Encoding:
      - chunked
      Via:
      - 1.1 vegur
    body:
      encoding: UTF-8
      string: '[{"id":321,"active":true,"admin_emails":null,"alternate_name":"","coordinates":[-122.4079095,37.7928288],"description":"Provides
        vocational training services for low-income, limited English-speaking adults,
        primarily ethnic Chinese. The six-month program includes classroom study and
        on-the-job training (OJT) to earn a certificate in custodial maintenance.
        Program requires tuition of $1,475 in total. Student OJT work is paid at San
        Francisco minimum wage. Concludes with job placement assistance. Continuing
        support for alumni.","kind":"Human Services","latitude":37.7928288,"longitude":-122.4079095,"name":"Maintenance
        Training Corporation (MAINTRAIN)","short_desc":"On-the-job training program
        in custodial services for low-income, primarily Asian adults.","slug":"maintenance-training-corporation-maintrain","updated_at":"2016-03-07T15:30:51.607-08:00","website":"http://www.maintrain.org/program.html","url":"https://api.smc-connect.org/locations/maintenance-training-corporation-maintrain","address":{"id":270,"address_1":"777
        Stockton Street, Suite 202","address_2":null,"city":"San Francisco","state_province":"CA","postal_code":"94108"},"organization":{"id":321,"accreditations":[],"alternate_name":null,"date_incorporated":null,"description":null,"email":null,"funding_sources":[],"licenses":[],"name":"Maintenance
        Training Corporation (MAINTRAIN)","website":null,"slug":"maintenance-training-corporation-maintrain","url":"https://api.smc-connect.org/organizations/maintenance-training-corporation-maintrain","locations_url":"https://api.smc-connect.org/organizations/maintenance-training-corporation-maintrain/locations"},"phones":[{"id":426,"department":null,"extension":null,"number":"415
        398-3353","number_type":"voice","vanity_number":null},{"id":2692,"department":null,"extension":null,"number":"415
        398-3357","number_type":"fax","vanity_number":null}]},{"id":1199,"active":true,"admin_emails":null,"alternate_name":null,"coordinates":[-122.4052981,37.78597],"description":"Assists
        people affected by, or at risk for, HIV/AIDS through culturally appropriate
        counseling, education and advocacy to make informed choices which maximize
        available benefits and employment opportunities. The Employment Services Program
        includes job search skills workshops, computer training, resume assistance,
        career counseling/vocational testing and Working While Disabled workshops.
        The Benefits Counseling Program for San Francisco residents provides individualized
        benefits counseling and advocacy.","kind":"Human Services","latitude":37.78597,"longitude":-122.4052981,"name":"Taft
        School Health Services","short_desc":"An employment service for persons with
        AIDS/HIV.","slug":"taft-school-health-services","updated_at":"2014-11-25T17:22:13.037-08:00","website":"http://www.positiveresource.org","url":"https://api.smc-connect.org/locations/taft-school-health-services","address":{"id":957,"address_1":"785
        Market Street, 10th Floor","address_2":null,"city":"San Francisco","state_province":"CA","postal_code":"94103"},"organization":{"id":1199,"accreditations":[],"alternate_name":null,"date_incorporated":null,"description":null,"email":null,"funding_sources":[],"licenses":[],"name":"Positive
        Resource Center","website":null,"slug":"positive-resource-center","url":"https://api.smc-connect.org/organizations/positive-resource-center","locations_url":"https://api.smc-connect.org/organizations/positive-resource-center/locations"},"phones":[{"id":1572,"department":null,"extension":null,"number":"415
        777-0333","number_type":"voice","vanity_number":null},{"id":3239,"department":null,"extension":null,"number":"415
        777-1770","number_type":"fax","vanity_number":null}]},{"id":1161,"active":true,"admin_emails":null,"alternate_name":null,"coordinates":[-122.4020736,37.7907516],"description":"Provides
        information, advocacy, counseling and legal services on employment-related
        issues to low-income individuals. Access to services is provided through Workers''
        Rights Clinics which address the full range of employment issues including
        unpaid wages, workplace discrimination, harassment, wrongful termination,
        disability rights in the workplace, workplace injuries, unemployment compensation,
        and family/medical leave. Clinics are located in San Francisco, Berkeley,
        East San Jose, Fresno, and Orange County.","kind":"Human Services","latitude":37.7907516,"longitude":-122.4020736,"name":"Employment
        Law Center","short_desc":"Legal representation for low-income persons with
        employment problems.","slug":"employment-law-center","updated_at":"2014-12-04T11:17:20.943-08:00","website":"http://www.las-elc.org","url":"https://api.smc-connect.org/locations/employment-law-center","address":{"id":927,"address_1":"180
        Montgomery Street","address_2":null,"city":"San Francisco","state_province":"CA","postal_code":"94104"},"organization":{"id":1161,"accreditations":[],"alternate_name":null,"date_incorporated":null,"description":null,"email":null,"funding_sources":[],"licenses":[],"name":"Legal
        Aid Society of San Francisco","website":null,"slug":"legal-aid-society-of-san-francisco","url":"https://api.smc-connect.org/organizations/legal-aid-society-of-san-francisco","locations_url":"https://api.smc-connect.org/organizations/legal-aid-society-of-san-francisco/locations"},"phones":[{"id":1521,"department":null,"extension":null,"number":"415
        864-8848","number_type":"voice","vanity_number":null},{"id":1522,"department":null,"extension":null,"number":"415
        864-8208","number_type":"voice","vanity_number":null},{"id":3217,"department":null,"extension":null,"number":"415
        864-8199","number_type":"fax","vanity_number":null}]},{"id":1151,"active":true,"admin_emails":null,"alternate_name":null,"coordinates":[-122.430927,37.78667],"description":"Provides
        bilingual social services primarily for Japanese persons, including translation
        and interpretation. Drop-in center provides employment, housing and immigration
        information, cultural, educational and recreational activities, and information
        and referral. Offers a small library of Japanese books. A community board
        lists job openings, housing information and educational opportunities in Japanese.
        Publishes a bimonthly newsletter. A women''s project offers peer counseling
        and group support.","kind":"Human Services","latitude":37.78667,"longitude":-122.430927,"name":"Nobiru
        Kai Inc.","short_desc":"Bilingual social services for Japanese, including
        translation and interpretation, a drop-in center, library, educational and
        recreational activities.","slug":"nobiru-kai-inc","updated_at":"2014-12-04T11:08:56.272-08:00","website":"http://www.nobiru-kai.org","url":"https://api.smc-connect.org/locations/nobiru-kai-inc","address":{"id":917,"address_1":"1840
        Sutter Street, Suite 207","address_2":null,"city":"San Francisco","state_province":"CA","postal_code":"94115"},"organization":{"id":1151,"accreditations":[],"alternate_name":null,"date_incorporated":null,"description":null,"email":null,"funding_sources":[],"licenses":[],"name":"Japanese
        Newcomers Services","website":null,"slug":"japanese-newcomers-services","url":"https://api.smc-connect.org/organizations/japanese-newcomers-services","locations_url":"https://api.smc-connect.org/organizations/japanese-newcomers-services/locations"},"phones":[{"id":1508,"department":null,"extension":null,"number":"415
        922-2033","number_type":"voice","vanity_number":null},{"id":3208,"department":null,"extension":null,"number":"415
        922-0410","number_type":"fax","vanity_number":null}]},{"id":311,"active":true,"admin_emails":null,"alternate_name":null,"coordinates":[-122.3935533,37.7938256],"description":"Provides
        interest-free loans to Jewish residents of northern California facing financial
        distress or needing help to achieve an important goal. Loans are available
        for emergencies, education, adoption, medical expenses, business start-ups,
        and many other needs.","kind":"Human Services","latitude":37.7938256,"longitude":-122.3935533,"name":"Hebrew
        Free Loan Association of San Francisco","short_desc":"Provides interest-free
        loans to qualifying Jewish persons.","slug":"hebrew-free-loan-association-of-san-francisco","updated_at":"2014-11-25T17:21:59.856-08:00","website":"http://hflasf.org","url":"https://api.smc-connect.org/locations/hebrew-free-loan-association-of-san-francisco","address":{"id":261,"address_1":"131
        Steuart Street, Suite 425","address_2":null,"city":"San Francisco","state_province":"CA","postal_code":"94105"},"organization":{"id":311,"accreditations":[],"alternate_name":null,"date_incorporated":null,"description":null,"email":null,"funding_sources":[],"licenses":[],"name":"Hebrew
        Free Loan Association of San Francisco","website":null,"slug":"hebrew-free-loan-association-of-san-francisco","url":"https://api.smc-connect.org/organizations/hebrew-free-loan-association-of-san-francisco","locations_url":"https://api.smc-connect.org/organizations/hebrew-free-loan-association-of-san-francisco/locations"},"phones":[{"id":414,"department":null,"extension":null,"number":"415
        546-9902","number_type":"voice","vanity_number":null},{"id":2683,"department":null,"extension":null,"number":"415
        546-7479","number_type":"fax","vanity_number":null}]}]'
    http_version: 
  recorded_at: Sun, 01 Jul 2018 01:50:58 GMT
recorded_with: VCR 4.0.0
