---
http_interactions:
- request:
    method: get
    uri: https://api.smc-connect.org/search?keyword=Care&kind=Human%20Services&location=94103&page=1&per_page=5
    body:
      encoding: US-ASCII
      string: ''
    headers:
      Accept:
      - application/vnd.ohanapi-v1+json
      User-Agent:
      - Ohanakapa Ruby Gem 1.1.3
      Accept-Encoding:
      - gzip;q=1.0,deflate;q=0.6,identity;q=0.3
  response:
    status:
      code: 200
      message: OK
    headers:
      Server:
      - Cowboy
      Connection:
      - keep-alive
      X-Frame-Options:
      - SAMEORIGIN
      X-Xss-Protection:
      - 1; mode=block
      X-Content-Type-Options:
      - nosniff
      Etag:
      - W/"901d098223c212ae6e7f429638874500"
      Link:
      - <https://api.smc-connect.org/search?keyword=Care&page=12&per_page=5>; rel="last",
        <https://api.smc-connect.org/search?keyword=Care&page=2&per_page=5>; rel="next"
      X-Total-Count:
      - '60'
      Content-Type:
      - application/json; charset=utf-8
      Date:
      - Sun, 01 Jul 2018 19:58:06 GMT
      Cache-Control:
      - max-age=300, public
      Vary:
      - Origin
      X-Request-Id:
      - 4743269e-06ce-42f2-abe9-7ee9b7c385fd
      X-Runtime:
      - '0.155493'
      Strict-Transport-Security:
      - max-age=15552000; includeSubDomains
      Transfer-Encoding:
      - chunked
      Via:
      - 1.1 vegur
    body:
      encoding: UTF-8
      string: '[{"id":327,"active":true,"admin_emails":null,"alternate_name":"","coordinates":[-122.4033,37.774674],"description":"Provides
        supportive services to everyone impacted by domestic violence. Maintains a
        daily inventory of bed space at Bay Area battered women''s shelters. A drop-in
        center provides crisis assistance, options counseling and individual long-term
        therapy. Offers support groups for battered women and referrals to selected
        therapists and attorneys who work with abused women. The Latina Services program
        provides 24-hour, culturally appropriate services to monolingual Spanish speaking
        survivors. Provides training on domestic violence issues to other community
        organizations, hospitals and corporations. Volunteer program offers 40-hour
        certification trainings 3-4 times a year. Outreach program offers 10-hour
        training and also gives presentations in the community and tables at local
        events.","kind":"Human Services","latitude":37.774674,"longitude":-122.4033,"name":"WOMAN,
        Inc. (Women Organized to Make Abuse Nonexistent)","short_desc":"Supportive/social
        services to victims of domestic violence.","slug":"woman-inc-women-organized-to-make-abuse-nonexistent","updated_at":"2016-12-12T15:35:51.681-08:00","website":"http://www.womaninc.org","url":"https://api.smc-connect.org/locations/woman-inc-women-organized-to-make-abuse-nonexistent","address":{"id":276,"address_1":"26
        Boardman Place","address_2":null,"city":"San Francisco","state_province":"CA","postal_code":"94103"},"organization":{"id":327,"accreditations":[],"alternate_name":null,"date_incorporated":null,"description":null,"email":null,"funding_sources":[],"licenses":[],"name":"WOMAN,
        Inc. (Women Organized to Make Abuse Nonexistent)","website":null,"slug":"woman-inc-women-organized-to-make-abuse-nonexistent","url":"https://api.smc-connect.org/organizations/woman-inc-women-organized-to-make-abuse-nonexistent","locations_url":"https://api.smc-connect.org/organizations/woman-inc-women-organized-to-make-abuse-nonexistent/locations"},"phones":[{"id":433,"department":null,"extension":null,"number":"415
        864-4777","number_type":"voice","vanity_number":null},{"id":434,"department":"Crisis
        Line 24 hours daily","extension":null,"number":"415 864-4722","number_type":"voice","vanity_number":null},{"id":2697,"department":null,"extension":null,"number":"415
        864-1082","number_type":"fax","vanity_number":null}]},{"id":297,"active":true,"admin_emails":null,"alternate_name":null,"coordinates":[-122.405848,37.7896823],"description":"Helps
        individuals and couples facing infertility. Offers telephone counseling, local
        support groups, information about infertility and adoption, two symposiums
        a year on all aspects of infertility and adoption, pre-adoption information
        meetings, monthly focus workshops on related topics, a quarterly newsletter,
        a member network and a lending library. Membership also includes access to
        National Resolve, Inc. which offers a newsletter, referral services and more.","kind":"Human
        Services","latitude":37.7896823,"longitude":-122.405848,"name":"Resolve of
        Northern California, Inc.","short_desc":null,"slug":"resolve-of-northern-california-inc","updated_at":"2014-12-04T11:08:51.948-08:00","website":"http://www.resolvenc.org","url":"https://api.smc-connect.org/locations/resolve-of-northern-california-inc","address":{"id":252,"address_1":"312
        Sutter Street, Suite 405","address_2":null,"city":"San Francisco","state_province":"CA","postal_code":"94108"},"organization":{"id":297,"accreditations":[],"alternate_name":null,"date_incorporated":null,"description":null,"email":null,"funding_sources":[],"licenses":[],"name":"Resolve
        of Northern California, Inc.","website":null,"slug":"resolve-of-northern-california-inc","url":"https://api.smc-connect.org/organizations/resolve-of-northern-california-inc","locations_url":"https://api.smc-connect.org/organizations/resolve-of-northern-california-inc/locations"},"phones":[{"id":394,"department":"Helpline","extension":null,"number":"415
        788-3002","number_type":"voice","vanity_number":null},{"id":395,"department":null,"extension":null,"number":"415
        788-6772","number_type":"voice","vanity_number":null},{"id":2674,"department":null,"extension":null,"number":"415
        788-6774","number_type":"fax","vanity_number":null}]},{"id":1343,"active":true,"admin_emails":null,"alternate_name":null,"coordinates":[-122.4375073,37.7848366],"description":"Provides
        counseling, case management, information and referral, support groups, financial
        assistance and advocacy for Jewish individuals with HIV/AIDS, chronic illness
        or disability, their family and loved ones. \"Chicken Souper\" meals are prepared
        and delivered twice a month by local congregations. Offers support and assistance
        to out-of-town families. Volunteers provide practical support for clients.
        Provides referrals to rabbis for pastoral counseling and spiritual support.
        Offers a meal delivery program for low-income, physically disabled clients
        living in San Francisco (regardless of religion) weekly which provides food
        for seven days. Call 415-449-3824 for more information. Other offices offering
        disability services are located at 200 Channing Avenue, Palo Alto, 94301 and
        2001 Windward Way, San Mateo 94404.","kind":"Human Services","latitude":37.7848366,"longitude":-122.4375073,"name":"AIDS,
        Chronic Illness and Disabilities Program","short_desc":"Counseling, support,
        case management, crisis intervention and financial assistance for Jewish persons
        with HIV/AIDS, family and loved ones.","slug":"aids-chronic-illness-and-disabilities-program","updated_at":"2014-11-25T17:22:16.318-08:00","website":"http://www.jfcs.org","url":"https://api.smc-connect.org/locations/aids-chronic-illness-and-disabilities-program","address":{"id":1083,"address_1":"2150
        Post Street","address_2":null,"city":"San Francisco","state_province":"CA","postal_code":"94115"},"organization":{"id":1290,"accreditations":[],"alternate_name":null,"date_incorporated":null,"description":null,"email":null,"funding_sources":[],"licenses":[],"name":"Jewish
        Family and Children''s Services","website":null,"slug":"jewish-family-and-children-s-services","url":"https://api.smc-connect.org/organizations/jewish-family-and-children-s-services","locations_url":"https://api.smc-connect.org/organizations/jewish-family-and-children-s-services/locations"},"phones":[{"id":1794,"department":null,"extension":null,"number":"415
        449-1224","number_type":"voice","vanity_number":null},{"id":1795,"department":null,"extension":null,"number":"415
        345-1927","number_type":"tty","vanity_number":null},{"id":3328,"department":null,"extension":null,"number":"415
        449-1253","number_type":"fax","vanity_number":null}]},{"id":723,"active":true,"admin_emails":null,"alternate_name":null,"coordinates":[-122.4298896,37.7646447],"description":"Provides
        complementary medicine including acupuncture, massage, herbal therapy and
        nutritional counseling. Addresses a full range of health concerns with a holistic
        approach that is customized to individual needs and can be complementary to
        Western medicine regimens.","kind":"Human Services","latitude":37.7646447,"longitude":-122.4298896,"name":"Immune
        Enhancement Project","short_desc":"Alternative healing using Chinese herbs
        and acupuncture for persons with HIV/AIDS.","slug":"immune-enhancement-project","updated_at":"2014-11-25T17:22:06.163-08:00","website":"http://www.iepclinic.com","url":"https://api.smc-connect.org/locations/immune-enhancement-project","address":{"id":605,"address_1":"3450
        - 16th Street","address_2":null,"city":"San Francisco","state_province":"CA","postal_code":"94114"},"organization":{"id":723,"accreditations":[],"alternate_name":null,"date_incorporated":null,"description":null,"email":null,"funding_sources":[],"licenses":[],"name":"Immune
        Enhancement Project","website":null,"slug":"immune-enhancement-project","url":"https://api.smc-connect.org/organizations/immune-enhancement-project","locations_url":"https://api.smc-connect.org/organizations/immune-enhancement-project/locations"},"phones":[{"id":974,"department":null,"extension":null,"number":"415
        252-8711","number_type":"voice","vanity_number":null},{"id":2950,"department":null,"extension":null,"number":"415
        252-8710","number_type":"fax","vanity_number":null}]},{"id":330,"active":true,"admin_emails":null,"alternate_name":null,"coordinates":[-122.4186253,37.7639793],"description":"Provides
        assistance to victims of hate and domestic violence and develops strategies
        to prevent violence. Counseling is offered on an individual basis. Individual
        counseling is provided to battered individuals through the domestic violence
        education program. Does community organizing and offers a youth safety project,
        and a hate violence and domestic violence survivor program. Assists with restraining
        order paperwork and court accompaniment. Provides legal referrals.","kind":"Human
        Services","latitude":37.7639793,"longitude":-122.4186253,"name":"Community
        United Against Violence (CUAV)","short_desc":"Assistance and services to gay/lesbian/bisexual/transgender
        victims of hate violence and domestic violence.","slug":"community-united-against-violence-cuav","updated_at":"2014-11-25T17:22:00.329-08:00","website":"http://www.cuav.org","url":"https://api.smc-connect.org/locations/community-united-against-violence-cuav","address":{"id":279,"address_1":"170A
        - Capp Street","address_2":null,"city":"San Francisco","state_province":"CA","postal_code":"94110"},"organization":{"id":330,"accreditations":[],"alternate_name":null,"date_incorporated":null,"description":null,"email":null,"funding_sources":[],"licenses":[],"name":"Community
        United Against Violence (CUAV)","website":null,"slug":"community-united-against-violence-cuav","url":"https://api.smc-connect.org/organizations/community-united-against-violence-cuav","locations_url":"https://api.smc-connect.org/organizations/community-united-against-violence-cuav/locations"},"phones":[{"id":437,"department":"Safety
        Line","extension":null,"number":"415 333-4357","number_type":"voice","vanity_number":"415
        333-HELP"},{"id":438,"department":null,"extension":null,"number":"415 777-5500","number_type":"voice","vanity_number":null},{"id":2700,"department":null,"extension":null,"number":"415
        777-5565","number_type":"fax","vanity_number":null}]}]'
    http_version: 
  recorded_at: Sun, 01 Jul 2018 19:58:06 GMT
- request:
    method: get
    uri: https://api.smc-connect.org/search?keyword=Care&kind=Human%20Services&location=94103&page=1&per_page=5
    body:
      encoding: US-ASCII
      string: ''
    headers:
      Accept:
      - application/vnd.ohanapi-v1+json
      User-Agent:
      - Ohanakapa Ruby Gem 1.1.3
      Accept-Encoding:
      - gzip;q=1.0,deflate;q=0.6,identity;q=0.3
  response:
    status:
      code: 200
      message: OK
    headers:
      Server:
      - Cowboy
      Connection:
      - keep-alive
      X-Frame-Options:
      - SAMEORIGIN
      X-Xss-Protection:
      - 1; mode=block
      X-Content-Type-Options:
      - nosniff
      Etag:
      - W/"901d098223c212ae6e7f429638874500"
      Link:
      - <https://api.smc-connect.org/search?keyword=Care&page=12&per_page=5>; rel="last",
        <https://api.smc-connect.org/search?keyword=Care&page=2&per_page=5>; rel="next"
      X-Total-Count:
      - '60'
      Content-Type:
      - application/json; charset=utf-8
      Date:
      - Sun, 01 Jul 2018 19:58:06 GMT
      Cache-Control:
      - max-age=300, public
      Vary:
      - Origin
      X-Request-Id:
      - 12f06c4c-2ac7-4075-834e-c53ebff3da76
      X-Runtime:
      - '0.066369'
      Strict-Transport-Security:
      - max-age=15552000; includeSubDomains
      Transfer-Encoding:
      - chunked
      Via:
      - 1.1 vegur
    body:
      encoding: UTF-8
      string: '[{"id":327,"active":true,"admin_emails":null,"alternate_name":"","coordinates":[-122.4033,37.774674],"description":"Provides
        supportive services to everyone impacted by domestic violence. Maintains a
        daily inventory of bed space at Bay Area battered women''s shelters. A drop-in
        center provides crisis assistance, options counseling and individual long-term
        therapy. Offers support groups for battered women and referrals to selected
        therapists and attorneys who work with abused women. The Latina Services program
        provides 24-hour, culturally appropriate services to monolingual Spanish speaking
        survivors. Provides training on domestic violence issues to other community
        organizations, hospitals and corporations. Volunteer program offers 40-hour
        certification trainings 3-4 times a year. Outreach program offers 10-hour
        training and also gives presentations in the community and tables at local
        events.","kind":"Human Services","latitude":37.774674,"longitude":-122.4033,"name":"WOMAN,
        Inc. (Women Organized to Make Abuse Nonexistent)","short_desc":"Supportive/social
        services to victims of domestic violence.","slug":"woman-inc-women-organized-to-make-abuse-nonexistent","updated_at":"2016-12-12T15:35:51.681-08:00","website":"http://www.womaninc.org","url":"https://api.smc-connect.org/locations/woman-inc-women-organized-to-make-abuse-nonexistent","address":{"id":276,"address_1":"26
        Boardman Place","address_2":null,"city":"San Francisco","state_province":"CA","postal_code":"94103"},"organization":{"id":327,"accreditations":[],"alternate_name":null,"date_incorporated":null,"description":null,"email":null,"funding_sources":[],"licenses":[],"name":"WOMAN,
        Inc. (Women Organized to Make Abuse Nonexistent)","website":null,"slug":"woman-inc-women-organized-to-make-abuse-nonexistent","url":"https://api.smc-connect.org/organizations/woman-inc-women-organized-to-make-abuse-nonexistent","locations_url":"https://api.smc-connect.org/organizations/woman-inc-women-organized-to-make-abuse-nonexistent/locations"},"phones":[{"id":433,"department":null,"extension":null,"number":"415
        864-4777","number_type":"voice","vanity_number":null},{"id":434,"department":"Crisis
        Line 24 hours daily","extension":null,"number":"415 864-4722","number_type":"voice","vanity_number":null},{"id":2697,"department":null,"extension":null,"number":"415
        864-1082","number_type":"fax","vanity_number":null}]},{"id":297,"active":true,"admin_emails":null,"alternate_name":null,"coordinates":[-122.405848,37.7896823],"description":"Helps
        individuals and couples facing infertility. Offers telephone counseling, local
        support groups, information about infertility and adoption, two symposiums
        a year on all aspects of infertility and adoption, pre-adoption information
        meetings, monthly focus workshops on related topics, a quarterly newsletter,
        a member network and a lending library. Membership also includes access to
        National Resolve, Inc. which offers a newsletter, referral services and more.","kind":"Human
        Services","latitude":37.7896823,"longitude":-122.405848,"name":"Resolve of
        Northern California, Inc.","short_desc":null,"slug":"resolve-of-northern-california-inc","updated_at":"2014-12-04T11:08:51.948-08:00","website":"http://www.resolvenc.org","url":"https://api.smc-connect.org/locations/resolve-of-northern-california-inc","address":{"id":252,"address_1":"312
        Sutter Street, Suite 405","address_2":null,"city":"San Francisco","state_province":"CA","postal_code":"94108"},"organization":{"id":297,"accreditations":[],"alternate_name":null,"date_incorporated":null,"description":null,"email":null,"funding_sources":[],"licenses":[],"name":"Resolve
        of Northern California, Inc.","website":null,"slug":"resolve-of-northern-california-inc","url":"https://api.smc-connect.org/organizations/resolve-of-northern-california-inc","locations_url":"https://api.smc-connect.org/organizations/resolve-of-northern-california-inc/locations"},"phones":[{"id":394,"department":"Helpline","extension":null,"number":"415
        788-3002","number_type":"voice","vanity_number":null},{"id":395,"department":null,"extension":null,"number":"415
        788-6772","number_type":"voice","vanity_number":null},{"id":2674,"department":null,"extension":null,"number":"415
        788-6774","number_type":"fax","vanity_number":null}]},{"id":1343,"active":true,"admin_emails":null,"alternate_name":null,"coordinates":[-122.4375073,37.7848366],"description":"Provides
        counseling, case management, information and referral, support groups, financial
        assistance and advocacy for Jewish individuals with HIV/AIDS, chronic illness
        or disability, their family and loved ones. \"Chicken Souper\" meals are prepared
        and delivered twice a month by local congregations. Offers support and assistance
        to out-of-town families. Volunteers provide practical support for clients.
        Provides referrals to rabbis for pastoral counseling and spiritual support.
        Offers a meal delivery program for low-income, physically disabled clients
        living in San Francisco (regardless of religion) weekly which provides food
        for seven days. Call 415-449-3824 for more information. Other offices offering
        disability services are located at 200 Channing Avenue, Palo Alto, 94301 and
        2001 Windward Way, San Mateo 94404.","kind":"Human Services","latitude":37.7848366,"longitude":-122.4375073,"name":"AIDS,
        Chronic Illness and Disabilities Program","short_desc":"Counseling, support,
        case management, crisis intervention and financial assistance for Jewish persons
        with HIV/AIDS, family and loved ones.","slug":"aids-chronic-illness-and-disabilities-program","updated_at":"2014-11-25T17:22:16.318-08:00","website":"http://www.jfcs.org","url":"https://api.smc-connect.org/locations/aids-chronic-illness-and-disabilities-program","address":{"id":1083,"address_1":"2150
        Post Street","address_2":null,"city":"San Francisco","state_province":"CA","postal_code":"94115"},"organization":{"id":1290,"accreditations":[],"alternate_name":null,"date_incorporated":null,"description":null,"email":null,"funding_sources":[],"licenses":[],"name":"Jewish
        Family and Children''s Services","website":null,"slug":"jewish-family-and-children-s-services","url":"https://api.smc-connect.org/organizations/jewish-family-and-children-s-services","locations_url":"https://api.smc-connect.org/organizations/jewish-family-and-children-s-services/locations"},"phones":[{"id":1794,"department":null,"extension":null,"number":"415
        449-1224","number_type":"voice","vanity_number":null},{"id":1795,"department":null,"extension":null,"number":"415
        345-1927","number_type":"tty","vanity_number":null},{"id":3328,"department":null,"extension":null,"number":"415
        449-1253","number_type":"fax","vanity_number":null}]},{"id":723,"active":true,"admin_emails":null,"alternate_name":null,"coordinates":[-122.4298896,37.7646447],"description":"Provides
        complementary medicine including acupuncture, massage, herbal therapy and
        nutritional counseling. Addresses a full range of health concerns with a holistic
        approach that is customized to individual needs and can be complementary to
        Western medicine regimens.","kind":"Human Services","latitude":37.7646447,"longitude":-122.4298896,"name":"Immune
        Enhancement Project","short_desc":"Alternative healing using Chinese herbs
        and acupuncture for persons with HIV/AIDS.","slug":"immune-enhancement-project","updated_at":"2014-11-25T17:22:06.163-08:00","website":"http://www.iepclinic.com","url":"https://api.smc-connect.org/locations/immune-enhancement-project","address":{"id":605,"address_1":"3450
        - 16th Street","address_2":null,"city":"San Francisco","state_province":"CA","postal_code":"94114"},"organization":{"id":723,"accreditations":[],"alternate_name":null,"date_incorporated":null,"description":null,"email":null,"funding_sources":[],"licenses":[],"name":"Immune
        Enhancement Project","website":null,"slug":"immune-enhancement-project","url":"https://api.smc-connect.org/organizations/immune-enhancement-project","locations_url":"https://api.smc-connect.org/organizations/immune-enhancement-project/locations"},"phones":[{"id":974,"department":null,"extension":null,"number":"415
        252-8711","number_type":"voice","vanity_number":null},{"id":2950,"department":null,"extension":null,"number":"415
        252-8710","number_type":"fax","vanity_number":null}]},{"id":330,"active":true,"admin_emails":null,"alternate_name":null,"coordinates":[-122.4186253,37.7639793],"description":"Provides
        assistance to victims of hate and domestic violence and develops strategies
        to prevent violence. Counseling is offered on an individual basis. Individual
        counseling is provided to battered individuals through the domestic violence
        education program. Does community organizing and offers a youth safety project,
        and a hate violence and domestic violence survivor program. Assists with restraining
        order paperwork and court accompaniment. Provides legal referrals.","kind":"Human
        Services","latitude":37.7639793,"longitude":-122.4186253,"name":"Community
        United Against Violence (CUAV)","short_desc":"Assistance and services to gay/lesbian/bisexual/transgender
        victims of hate violence and domestic violence.","slug":"community-united-against-violence-cuav","updated_at":"2014-11-25T17:22:00.329-08:00","website":"http://www.cuav.org","url":"https://api.smc-connect.org/locations/community-united-against-violence-cuav","address":{"id":279,"address_1":"170A
        - Capp Street","address_2":null,"city":"San Francisco","state_province":"CA","postal_code":"94110"},"organization":{"id":330,"accreditations":[],"alternate_name":null,"date_incorporated":null,"description":null,"email":null,"funding_sources":[],"licenses":[],"name":"Community
        United Against Violence (CUAV)","website":null,"slug":"community-united-against-violence-cuav","url":"https://api.smc-connect.org/organizations/community-united-against-violence-cuav","locations_url":"https://api.smc-connect.org/organizations/community-united-against-violence-cuav/locations"},"phones":[{"id":437,"department":"Safety
        Line","extension":null,"number":"415 333-4357","number_type":"voice","vanity_number":"415
        333-HELP"},{"id":438,"department":null,"extension":null,"number":"415 777-5500","number_type":"voice","vanity_number":null},{"id":2700,"department":null,"extension":null,"number":"415
        777-5565","number_type":"fax","vanity_number":null}]}]'
    http_version: 
  recorded_at: Sun, 01 Jul 2018 19:58:06 GMT
recorded_with: VCR 4.0.0
